. - Dynamic UNGDC (updated)
…
Model 1 - Topic 8 
Model 2 - Topic 3 
Model 1 - Topic 10 
Model 2 - Topic 6 
Model 1 - Topic 7 
Model 2 - Topic 8 
# A tibble: 30 × 4
   term_1    probability_1 term_2    probability_2
   <chr>             <dbl> <chr>             <dbl>
 1 african         0.0150  african         0.00885
 2 africa          0.00815 ghana           0.00692
 3 portug          0.00735 rwanda          0.00661
 4 mali            0.00729 portug          0.00620
 5 portugues       0.00670 uganda          0.00618
 6 somali          0.00661 burundi         0.00593
 7 congo           0.00627 africa          0.00530
 8 austrian        0.00601 portugues       0.00462
 9 cameroon        0.00564 kenya           0.00460
10 malagasi        0.00553 oau             0.00452
# ℹ 20 more rows
…
