Dynamic UNGDC
…
Model 1 - Topic 7 
Model 2 - Topic 2 
Model 1 - Topic 6 
Model 2 - Topic 6 
Model 1 - Topic 1 
Model 2 - Topic 10 
# A tibble: 30 × 4
   term_1  probability_1 term_2  probability_2
   <chr>           <dbl> <chr>           <dbl>
 1 state         0.0309  state         0.0291 
 2 unit          0.0263  unit          0.0156 
 3 peopl         0.0215  peopl         0.0152 
 4 peac          0.0155  peac          0.0148 
 5 countri       0.0140  republ        0.0140 
 6 republ        0.0117  intern        0.0119 
 7 soviet        0.0115  soviet        0.0118 
 8 govern        0.0101  nation        0.0116 
 9 war           0.0100  secur         0.0108 
10 general       0.00859 countri       0.00923
# ℹ 20 more rows
…
Model 1 - Topic 7 
Model 2 - Topic 7 
Model 1 - Topic 1 
Model 2 - Topic 8 
Model 1 - Topic 9 
Model 2 - Topic 9 
# A tibble: 30 × 4
   term_1    probability_1 term_2      probability_2
   <chr>             <dbl> <chr>               <dbl>
 1 israel           0.0285 arab              0.0227 
 2 arab             0.0277 israel            0.0185 
 3 unit             0.0158 state             0.0159 
 4 peopl            0.0156 palestinian       0.0143 
 5 state            0.0139 unit              0.0127 
 6 territori        0.0127 peopl             0.0121 
 7 resolut          0.0118 peac              0.0107 
 8 peac             0.0115 resolut           0.0100 
 9 secur            0.0108 aggress           0.00909
10 nation           0.0108 secur             0.00899
# ℹ 20 more rows
…
Model 1 - Topic 7 
Model 2 - Topic 1 
Model 1 - Topic 3 
Model 2 - Topic 5 
Model 1 - Topic 2 
Model 2 - Topic 9 
# A tibble: 30 × 4
   term_1      probability_1 term_2      probability_2
   <chr>               <dbl> <chr>               <dbl>
 1 peac              0.0206  intern            0.0178 
 2 intern            0.0193  peac              0.0161 
 3 secur             0.0111  state             0.0141 
 4 region            0.0110  peopl             0.0131 
 5 peopl             0.00998 secur             0.0108 
 6 palestinian       0.00991 palestinian       0.0103 
 7 state             0.00892 countri           0.00932
 8 will              0.00782 region            0.00928
 9 arab              0.00781 arab              0.00901
10 israel            0.00773 will              0.00775
# ℹ 20 more rows
…
Model 1 - Topic 9 
Model 2 - Topic 4 
Model 1 - Topic 2 
Model 2 - Topic 5 
Model 1 - Topic 1 
Model 2 - Topic 8 
Model 1 - Topic 5 
Model 2 - Topic 9 
Model 1 - Topic 6 
Model 2 - Topic 10 
# A tibble: 50 × 4
   term_1 probability_1 term_2 probability_2
   <chr>          <dbl> <chr>          <dbl>
 1 world        0.0154  will         0.0177 
 2 will         0.0145  world        0.0173 
 3 must         0.0129  us           0.0138 
 4 nation       0.0123  must         0.0116 
 5 peopl        0.0118  nation       0.0112 
 6 us           0.0112  peopl        0.0112 
 7 can          0.0107  can          0.0105 
 8 unit         0.00918 one          0.00901
 9 year         0.00813 unit         0.00755
10 one          0.00806 year         0.00711
# ℹ 40 more rows
